0.29,0
0.493607,0.0559619
0.858242,0.353131
0.921303,0.787995
0.491273,0.999999
-0.212094,0.789555
-0.836995,0.354821
-1.20009,0.0566101
-1.31,4.04085e-09
-1.20192,-0.0553182
-0.841079,-0.351444
-0.217892,-0.78643
0.486172,-0.999991
0.919742,-0.791112
0.860519,-0.356514
0.496539,-0.0572631
